-39.85 2.475 -260.4
-41.9 0.925 -260.4
-46.575 1.05 -288.4
-51.725 1.175 -319.4
-89.3376 1.99916 -545.826
-99.4506 2.24517 -606.826
-88.4039 1.97874 -540.174
-98.5166 2.21361 -601.174
-110.323 2.46359 -672.174
-171.765 3.8706 -1041.97
-187.113 4.21047 -1134.5
-242.854 5.46416 -1470
-295.361 6.67106 -1786
-33.9376 0.766856 -212.447
