-19.2134 -27.4812 202.125
-29.2822 -41.8682 265.6
-49.4268 -70.746 393.174
-55.9321 -80.0091 434.174
-50.3343 -72.0238 398.826
-56.8223 -81.2881 439.826
-64.5655 -92.41 488.826
-83.3364 -140.778 577.591
-97.26 -139.252 695.745
-97.5146 -139.352 695.65
-97.6868 -139.576 695.53
-129.898 -186.069 902.334
-170.02 -243.647 1156.5
