2.84513 35.5714 -439.6
3.13569 39.3787 -488.6
3.48988 43.8349 -545.6
3.86286 48.5417 -606.6
2.80574 35.1969 -434.4
3.10315 38.9811 -483.4
6.47888 81.3379 -1028.83
7.22402 90.3574 -1144.83
8.03465 100.43 -1274.83
8.83623 110.604 -1405.83
12.3343 154.56 -1972
13.5362 169.314 -2162
14.8403 185.614 -2372
18.5561 222.293 -2861
17.8722 223.595 -2861
