24.1612 23.4393 837.6
26.7582 25.9448 927.6
29.6296 28.7458 1028.6
32.9828 31.9837 1144.6
43.3886 42.0611 1507.7
48.0226 46.5713 1669.7
43.126 41.8062 1498.3
52.9185 51.312 1841.3
60.8464 59.0436 2117.17
60.4339 58.8668 2354.17
67.6346 65.6197 2354.17
75.2006 72.9736 2618.17
