34.7423 2.46055 216.7
45.4417 3.19167 265.6
51.55 3.65 293.6
83.5312 5.93084 439.826
82.3026 5.82166 434.174
93.0363 6.6105 483.174
105.505 7.47165 540.174
118.846 8.42031 601.174
173.974 12.3795 853.124
237.273 16.9198 1142.5
298.881 21.3597 1424
