-33.225 -0.15 354.4
-36.8 -0.175 393.4
-40.525 -0.175 434.4
-45.025 -0.2 483.4
-50.225 -0.225 540.4
-85.6145 -0.386653 927.826
-94.8293 -0.39524 1028.83
-105.441 -0.435649 1144.83
-117.298 -0.506654 1274.83
-85.0865 -0.39031 922.174
-94.3221 -0.410326 1023.17
-104.898 -0.440082 1139.17
-116.785 -0.50036 1269.17
-164.536 -0.701278 1792
-180.243 -0.762109 1964
-165.255 -0.675774 1800
-180.971 -0.766671 1972
-229.376 -0.93826 2502
-228.641 -0.93903 2494
