24.8003 -25.6053 922.4
27.3422 -28.2081 1023.4
24.9281 -25.7145 927.6
27.4831 -28.348 1028.6
30.4082 -31.3572 1144.6
43.3979 -44.7236 1660.3
47.9479 -49.4407 1841.3
61.0231 -62.8973 2359.83
67.6699 -69.7563 2623.83
