-15.6793 30.2074 265.6
-17.5512 34.1496 265.6
-17.6278 33.9322 293.6
-22.434 40.1736 293.6
-19.7454 38.05 324.6
-21.9236 40.3028 324.6
-22.1972 42.6967 359.6
-40.1815 28.2662 1139.4
-25.5536 -32.8643 922.4
-24.2966 -31.583 927.6
-70.4211 26.9841 1850.7
-38.8615 74.7831 601.174
-43.7633 84.2383 672.174
-48.8581 94.0721 746.174
-54.8146 105.487 832.174
-63.8871 49.2146 439.826
-75.8819 42.8725 483.174
-88.2716 30.8914 540.174
-89.2941 29.2792 545.826
-97.0145 7.06339 606.826
-91.6192 22.1637 1274.83
-93.9873 21.0623 1911.83
-95.019 21.3477 1911.83
-93.7105 -18.3353 672.174
-105.488 -22.1244 1400.17
-76.9929 -37.4247 751.826
-89.2479 -39.273 2122.83
-69.3802 133.497 1042.98
-77.2376 148.585 1156.5
-84.4119 162.326 1260
-157.48 -20.5258 2861
-99.3187 191.017 1476
-113.361 217.986 1679
-136.277 261.92 2010
-136.815 263 2018
213.9 -203.01 1778
