10.8186 -36.1217 -393.4
11.952 -39.9515 -434.4
9.87366 -32.9612 -359.6
10.9521 -36.6297 -398.6
12.1058 -40.4372 -439.6
13.4722 -45.0195 -488.6
15.0621 -50.341 -545.6
25.7425 -86.041 -927.826
28.5756 -95.456 -1028.83
25.5694 -85.5281 -922.174
28.4033 -94.9507 -1023.17
31.6369 -105.778 -1139.17
45.7311 -152.909 -1644
50.055 -167.508 -1800
54.8694 -183.551 -1972
69.3808 -232.301 -2494
69.6046 -233.056 -2502
79.4014 -265.814 -2853
