-32.2047 80.1109 -265.826
-37.4014 93.0634 -293.826
-43.1677 107.409 -324.826
-31.1334 77.5089 -260.174
-59.5474 148.125 -412.826
-82.4419 204.941 -535.666
-93.1404 231.497 -593.115
-104.603 259.899 -654.529
-115.904 287.882 -715.048
-12.4004 30.8938 -159.417
